…
``` r
github_users %>%
  detect_geographies(login, location, "country", email) %>% 
  detect_geographies(login, country, "iso_2") %>% 
  detect_geographies(login, country, "flag") %>% 
  select(login, location, country, iso_2, flag)
```

    ## # A tibble: 460 × 5
    ##    login        location                  country        iso_2 flag 
    ##    <chr>        <chr>                     <chr>          <chr> <chr>
    ##  1 mcollina     In the clouds above Italy Italy          IT    🇮🇹   
    ##  2 geoffeg      St. Louis, MO             United States  US    🇺🇸   
    ##  3 diegopacheco Porto Alegre, RS - Brazil Brazil         BR    🇧🇷   
    ##  4 ephur        San Antonio, TX           United States  US    🇺🇸   
    ##  5 paneq        Poland, Wrocaw            Poland         PL    🇵🇱   
    ##  6 michaeljones Manchester, UK            United Kingdom GB    🇬🇧   
    ##  7 wjimenez5271 Sunnyvale, CA             United States  US    🇺🇸   
    ##  8 simongog     Karlsruhe                 Germany        DE    🇩🇪   
    ##  9 dalpo        Vicenza, Italy            Italy          IT    🇮🇹   
    ## 10 shouze       Marseille, France         France         FR    🇫🇷   
    ## # … with 450 more rows
…
